…
   <fct>          <fct>            <fct>            <int>
 1 Breeder        DominantJuvenile Fall                 4
 2 Breeder        DominantJuvenile Spring               2
 3 Breeder        EPM              Fall                 2
 4 Breeder        Unknown          Fall                34
 5 Breeder        Unknown          Spring              10
 6 Breeder        Unknown          Winter               2
 7 Non-breeder    DominantJuvenile Fall                 3
 8 Non-breeder    DominantJuvenile Spring               2
 9 Non-breeder    DominantJuvenile Winter               2
10 Non-breeder    Unknown          Fall                 4
11 Non-breeder    Unknown          Spring              21
12 Unknown        Unknown          Fall                 2
[1] "breeding status, juvenile status, collection season, and collection year"
# A tibble: 22 x 5
# Groups:   BreedingStatus, JuvenileStatus, CollectionSeason, CollectionYear
#   [22]
   BreedingStatus JuvenileStatus   CollectionSeason CollectionYear     n
   <fct>          <fct>            <fct>                     <dbl> <int>
 1 Breeder        DominantJuvenile Fall                       2017     1
 2 Breeder        DominantJuvenile Fall                       2018     2
 3 Breeder        DominantJuvenile Fall                       2020     1
 4 Breeder        DominantJuvenile Spring                     2020     2
 5 Breeder        EPM              Fall                       2017     1
 6 Breeder        EPM              Fall                       2018     1
 7 Breeder        Unknown          Fall                       2016     1
 8 Breeder        Unknown          Fall                       2017    10
 9 Breeder        Unknown          Fall                       2018     8
10 Breeder        Unknown          Fall                       2020    15
# … with 12 more rows
[1] "Breeders by territory, year, season"
# A tibble: 44 x 4
# Groups:   Territory, CollectionYear, CollectionSeason [44]
   Territory CollectionYear CollectionSeason     n
   <fct>              <dbl> <fct>            <int>
 1 Alligator           2017 Fall                 1
 2 Alligator           2018 Fall                 1
 3 Alligator           2020 Fall                 1
 4 Arowhon             2017 Fall                 1
 5 Arowhon             2018 Fall                 1
 6 Arowhon             2020 Fall                 2
 7 Arowhon             2020 Spring               2
 8 BatLake             2017 Fall                 1
 9 BatLake             2018 Fall                 1
10 BatLake             2020 Fall                 1
# … with 34 more rows
…
